{
    "id": "org.kde.koko",
    "rename-icon": "koko",
    "runtime": "org.kde.Platform",
    "runtime-version": "5.14",
    "sdk": "org.kde.Sdk",
    "command": "koko",
    "tags": ["nightly"],
    "desktop-file-name-suffix": " (Nightly)",
    "finish-args": [
        "--share=ipc",
        "--share=network",
        "--socket=x11",
        "--socket=wayland",
        "--device=dri",
        "--filesystem=home",
        "--env=XDG_DATA_DIRS=/usr/share:/app/share/"
    ],
    "separate-locales": false,

    "modules": [
        {
            "name": "exiv2",
            "buildsystem": "cmake-ninja",
            "sources": [
                {
                    "type": "archive",
                    "url": "https://www.exiv2.org/builds/exiv2-0.27.2-Source.tar.gz",
                    "sha256": "2652f56b912711327baff6dc0c90960818211cf7ab79bb5e1eb59320b78d153f"
                }
            ]
        },
        {
            "name": "kio-extras",
            "buildsystem": "cmake-ninja",
            "sources": [
                {
                    "type": "git",
                    "url": "https://anongit.kde.org/kio-extras.git",
                    "branch": "release/19.12"
                }
            ]
        },
        {
            "name": "koko",
            "buildsystem": "cmake-ninja",
            "sources": [
                {
                    "type": "git",
                    "url": "https://anongit.kde.org/koko.git",
                    "branch": "master"
                },
                {
                    "type": "file",
                    "path": "koko/cities1000.zip",
                    "dest-filename": "src/cities1000.zip",
                    "sha256": "9cc6a02f00e2170d15b64454dc81cb6df775657bcb0835ce36f9b02f792fb7f8"
                },
                {
                    "type": "file",
                    "path": "koko/admin2Codes.txt",
                    "dest-filename": "src/admin2Codes.txt",
                    "sha256": "8829a3ec91f58036fa0ef668aa5de428b310b2aeb43a5842c6958a284a1e85b9"
                },
                {
                    "type": "file",
                    "path": "koko/admin1CodesASCII.txt",
                    "dest-filename": "src/admin1CodesASCII.txt",
                    "sha256": "e6b32ae1754817f5af17713bb3c173e227b2d6f6ffd4d66bae27bbe42376cde7"
                }
            ]
        }
    ]
}
