{
    "id": "org.kde.elisa",
    "branch": "master",
    "runtime": "org.kde.Platform",
    "runtime-version": "5.14",
    "sdk": "org.kde.Sdk",
    "command": "elisa",
    "tags": ["nightly"],
    "desktop-file-name-suffix": " (Nightly)",
    "finish-args": ["--share=ipc", "--socket=x11", "--socket=wayland", "--filesystem=home", "--socket=pulseaudio", "--device=dri", "--socket=session-bus", "--env=BALOO_DB_PATH=.local/share/baloo" ],

    "modules": [
        {
            "config-opts": [ "-DBUILD_SHARED_LIBS=ON" ],
            "name": "taglib",
            "buildsystem": "cmake-ninja",
            "sources": [
                {
                    "type": "archive",
                    "url": "http://taglib.github.io/releases/taglib-1.11.1.tar.gz",
                    "sha256": "b6d1a5a610aae6ff39d93de5efd0fdc787aa9e9dc1e7026fa4c961b26563526b"
                }
            ]
        },
        {
            "config-opts": [ "BUILDCC=gcc", "--disable-lua", "--disable-a52", "--disable-qt", "--disable-ncurses", "--disable-udev" ],
            "name": "libvlc",
            "sources": [
                {
                    "type": "archive",
                    "url": "https://download.videolan.org/pub/videolan/vlc/3.0.11/vlc-3.0.11.tar.xz",
                    "sha256": "3e94a1acf33445e9da15d528aa48657aa26b912eaa2656b403d43860a8834919"
                }
            ]
        },
        {
            "name": "lmdb",
            "sources": [ { "type": "git", "url": "git://github.com/LMDB/lmdb.git", "branch": "LMDB_0.9.18"}],
            "no-autogen": true,
            "make-install-args": ["prefix=/app"],
            "subdir" : "libraries/liblmdb"
        },
        {
            "config-opts": ["-DENABLE_TESTING=OFF" , "-DLMDB_DIR=/app"],
            "name": "baloo",
            "buildsystem": "cmake-ninja",
            "sources": [ { "type": "git", "url": "https://invent.kde.org/frameworks/baloo.git", "branch": "v5.64.0" } ]
        },
        {
            "name": "elisa",
            "buildsystem": "cmake-ninja",
            "config-opts": [],
            "sources": [
                { "type": "git", "url": "https://invent.kde.org/multimedia/elisa.git" }
            ]
        }
    ]
}
