{
    "id": "org.kde.parley",
    "branch": "master",
    "runtime": "org.kde.Platform",
    "runtime-version": "5.14",
    "sdk": "org.kde.Sdk",
    "base": "io.qt.qtwebengine.BaseApp",
    "base-version": "5.14",
    "command": "parley",
    "tags": ["nightly"],
    "desktop-file-name-suffix": " (Nightly)",
    "finish-args": ["--share=network", "--share=ipc", "--socket=x11", "--socket=wayland" ],

    "modules": [
        {
            "name": "kjs",
            "buildsystem": "cmake-ninja",
            "config-opts": [ "-DENABLE_TESTING=OFF" ],
            "sources": [ { "type": "git", "url": "https://anongit.kde.org/kjs.git", "branch": "v5.66.0" } ]
        },
        {
            "name": "khtml",
            "buildsystem": "cmake-ninja",
            "config-opts": [ "-DENABLE_TESTING=OFF" ],
            "sources": [ { "type": "git", "url": "https://anongit.kde.org/khtml.git", "branch": "v5.66.0" } ]
        },
        {
            "name": "kross",
            "buildsystem": "cmake-ninja",
            "config-opts": [ "-DENABLE_TESTING=OFF" ],
            "sources": [ { "type": "git", "url": "https://anongit.kde.org/kross.git", "branch": "v5.66.0" } ]
        },
        {
            "name": "libkeduvocdocument",
            "buildsystem": "cmake-ninja",
            "sources": [ { "type": "git", "url": "https://anongit.kde.org/libkeduvocdocument.git" } ]
        },
        {
            "name": "parley",
            "buildsystem": "cmake-ninja",
            "sources": [ { "type": "git", "url": "https://anongit.kde.org/parley.git" } ]
        }
    ]
}
