{
    "id": "org.kde.klickety",
    "branch": "master",
    "runtime": "org.kde.Platform",
    "runtime-version": "5.14",
    "sdk": "org.kde.Sdk",
    "command": "klickety",
    "tags": ["nightly"],
    "desktop-file-name-suffix": " (Nightly)",
    "finish-args": ["--share=ipc", "--socket=x11", "--socket=wayland", "--filesystem=host" ],

    "modules": [
        "libkdegames.json",
        {
            "name": "klickety",
            "buildsystem": "cmake-ninja",
            "sources": [
                { "type": "git", "url": "https://anongit.kde.org/klickety.git" }
            ]
        }
    ]
}
