{
    "id": "org.kde.kmix",
    "branch": "master",
    "runtime": "org.kde.Platform",
    "runtime-version": "5.14",
    "sdk": "org.kde.Sdk",
    "command": "kmix",
    "tags": ["nightly"],
    "desktop-file-name-suffix": " (Nightly)",
    "finish-args": ["--share=ipc", "--socket=x11", "--socket=wayland" ],

    "modules": [
        {
            "config-opts": [ "-DENABLE_TESTING=OFF" ],
            "name": "plasma-framework",
            "buildsystem": "cmake-ninja",
            "sources": [ { "type": "git", "url": "https://anongit.kde.org/plasma-framework.git", "branch": "v5.64.0" } ]
        },
        {
            "name": "kmix",
            "buildsystem": "cmake-ninja",
            "sources": [
                { "type": "git", "url": "https://anongit.kde.org/kmix.git" }
            ]
        }
    ]
}
